<?xml version="1.0" encoding="utf-8"?>
<!DOCTYPE eagle SYSTEM "eagle.dtd">
<eagle version="6.5.0">
<drawing>
<settings>
<setting alwaysvectorfont="no"/>
<setting verticaltext="up"/>
</settings>
<grid distance="0.1" unitdist="inch" unit="inch" style="lines" multiple="1" display="no" altdistance="0.01" altunitdist="inch" altunit="inch"/>
<layers>
<layer number="1" name="Top" color="4" fill="1" visible="yes" active="yes"/>
<layer number="16" name="Bottom" color="1" fill="1" visible="yes" active="yes"/>
<layer number="17" name="Pads" color="2" fill="1" visible="yes" active="yes"/>
<layer number="18" name="Vias" color="2" fill="1" visible="yes" active="yes"/>
<layer number="19" name="Unrouted" color="6" fill="1" visible="yes" active="yes"/>
<layer number="20" name="Dimension" color="15" fill="1" visible="yes" active="yes"/>
<layer number="21" name="tPlace" color="7" fill="1" visible="yes" active="yes"/>
<layer number="22" name="bPlace" color="7" fill="1" visible="yes" active="yes"/>
<layer number="23" name="tOrigins" color="15" fill="1" visible="yes" active="yes"/>
<layer number="24" name="bOrigins" color="15" fill="1" visible="yes" active="yes"/>
<layer number="25" name="tNames" color="7" fill="1" visible="yes" active="yes"/>
<layer number="26" name="bNames" color="7" fill="1" visible="yes" active="yes"/>
<layer number="27" name="tValues" color="7" fill="1" visible="yes" active="yes"/>
<layer number="28" name="bValues" color="7" fill="1" visible="yes" active="yes"/>
<layer number="29" name="tStop" color="7" fill="3" visible="no" active="yes"/>
<layer number="30" name="bStop" color="7" fill="6" visible="no" active="yes"/>
<layer number="31" name="tCream" color="7" fill="4" visible="no" active="yes"/>
<layer number="32" name="bCream" color="7" fill="5" visible="no" active="yes"/>
<layer number="33" name="tFinish" color="6" fill="3" visible="no" active="yes"/>
<layer number="34" name="bFinish" color="6" fill="6" visible="no" active="yes"/>
<layer number="35" name="tGlue" color="7" fill="4" visible="no" active="yes"/>
<layer number="36" name="bGlue" color="7" fill="5" visible="no" active="yes"/>
<layer number="37" name="tTest" color="7" fill="1" visible="no" active="yes"/>
<layer number="38" name="bTest" color="7" fill="1" visible="no" active="yes"/>
<layer number="39" name="tKeepout" color="4" fill="11" visible="yes" active="yes"/>
<layer number="40" name="bKeepout" color="1" fill="11" visible="yes" active="yes"/>
<layer number="41" name="tRestrict" color="4" fill="10" visible="yes" active="yes"/>
<layer number="42" name="bRestrict" color="1" fill="10" visible="yes" active="yes"/>
<layer number="43" name="vRestrict" color="2" fill="10" visible="yes" active="yes"/>
<layer number="44" name="Drills" color="7" fill="1" visible="no" active="yes"/>
<layer number="45" name="Holes" color="7" fill="1" visible="no" active="yes"/>
<layer number="46" name="Milling" color="3" fill="1" visible="no" active="yes"/>
<layer number="47" name="Measures" color="7" fill="1" visible="no" active="yes"/>
<layer number="48" name="Document" color="7" fill="1" visible="yes" active="yes"/>
<layer number="49" name="Reference" color="7" fill="1" visible="yes" active="yes"/>
<layer number="51" name="tDocu" color="7" fill="1" visible="yes" active="yes"/>
<layer number="52" name="bDocu" color="7" fill="1" visible="yes" active="yes"/>
<layer number="91" name="Nets" color="2" fill="1" visible="yes" active="yes"/>
<layer number="92" name="Busses" color="1" fill="1" visible="yes" active="yes"/>
<layer number="93" name="Pins" color="2" fill="1" visible="yes" active="yes"/>
<layer number="94" name="Symbols" color="4" fill="1" visible="yes" active="yes"/>
<layer number="95" name="Names" color="7" fill="1" visible="yes" active="yes"/>
<layer number="96" name="Values" color="7" fill="1" visible="yes" active="yes"/>
<layer number="97" name="Info" color="7" fill="1" visible="yes" active="yes"/>
<layer number="98" name="Guide" color="6" fill="1" visible="yes" active="yes"/>
</layers>
<library>
<packages>
<package name="8-DIP">
<pad name="1" x="-5.08" y="3.81" drill="0.8" shape="octagon"/>
<pad name="2" x="-5.08" y="1.27" drill="0.8" shape="square"/>
<pad name="3" x="-5.08" y="-1.27" drill="0.8" shape="square"/>
<pad name="4" x="-5.08" y="-3.81" drill="0.8" shape="square"/>
<pad name="5" x="5.08" y="-3.81" drill="0.8" shape="square"/>
<pad name="6" x="5.08" y="-1.27" drill="0.8" shape="square"/>
<pad name="7" x="5.08" y="1.27" drill="0.8" shape="square"/>
<pad name="8" x="5.08" y="3.81" drill="0.8" shape="square"/>
<wire x1="-3.175" y1="4.445" x2="-3.175" y2="-4.445" width="0.127" layer="51"/>
<wire x1="-3.175" y1="-4.445" x2="3.175" y2="-4.445" width="0.127" layer="51"/>
<wire x1="3.175" y1="-4.445" x2="3.175" y2="4.445" width="0.127" layer="51"/>
<wire x1="3.175" y1="4.445" x2="1.27" y2="4.445" width="0.127" layer="51"/>
<wire x1="1.27" y1="4.445" x2="-1.27" y2="4.445" width="0.127" layer="51"/>
<wire x1="-1.27" y1="4.445" x2="-3.175" y2="4.445" width="0.127" layer="51"/>
<wire x1="-1.27" y1="4.445" x2="1.27" y2="4.445" width="0.127" layer="51" curve="180"/>
<text x="-1.27" y="-3.81" size="1.27" layer="25" rot="R90">&gt;NAME</text>
<text x="2.54" y="-3.81" size="1.27" layer="27" rot="R90">&gt;VALUE</text>
</package>
<package name="8-SOIC">
<smd name="1" x="-2.54" y="1.905" dx="1.27" dy="0.635" layer="1" roundness="20"/>
<smd name="2" x="-2.54" y="0.635" dx="1.27" dy="0.635" layer="1"/>
<smd name="3" x="-2.54" y="-0.635" dx="1.27" dy="0.635" layer="1"/>
<smd name="4" x="-2.54" y="-1.905" dx="1.27" dy="0.635" layer="1"/>
<smd name="8" x="2.54" y="1.905" dx="1.27" dy="0.635" layer="1"/>
<smd name="7" x="2.54" y="0.635" dx="1.27" dy="0.635" layer="1"/>
<smd name="6" x="2.54" y="-0.635" dx="1.27" dy="0.635" layer="1"/>
<smd name="5" x="2.54" y="-1.905" dx="1.27" dy="0.635" layer="1"/>
<wire x1="-1.905" y1="-2.54" x2="1.905" y2="-2.54" width="0.127" layer="21"/>
<wire x1="1.905" y1="-2.54" x2="1.905" y2="2.54" width="0.127" layer="21"/>
<wire x1="-1.905" y1="2.54" x2="-1.905" y2="-2.54" width="0.127" layer="21"/>
<wire x1="1.905" y1="2.54" x2="0.635" y2="2.54" width="0.127" layer="21"/>
<wire x1="0.635" y1="2.54" x2="-0.635" y2="2.54" width="0.127" layer="21"/>
<wire x1="-0.635" y1="2.54" x2="-1.905" y2="2.54" width="0.127" layer="21"/>
<wire x1="-0.635" y1="2.54" x2="0.635" y2="2.54" width="0.127" layer="21" curve="180"/>
<text x="-3.81" y="3.81" size="1.27" layer="25">&gt;NAME</text>
<text x="-3.81" y="-5.08" size="1.27" layer="27">&gt;VALUE</text>
</package>
<package name="20-DIP">
<pad name="1" x="-4.445" y="11.43" drill="0.8" shape="square"/>
<pad name="2" x="-4.445" y="8.89" drill="0.8"/>
<pad name="3" x="-4.445" y="6.35" drill="0.8"/>
<pad name="4" x="-4.445" y="3.81" drill="0.8"/>
<pad name="5" x="-4.445" y="1.27" drill="0.8"/>
<pad name="6" x="-4.445" y="-1.27" drill="0.8"/>
<pad name="7" x="-4.445" y="-3.81" drill="0.8"/>
<pad name="8" x="-4.445" y="-6.35" drill="0.8"/>
<pad name="9" x="-4.445" y="-8.89" drill="0.8"/>
<pad name="10" x="-4.445" y="-11.43" drill="0.8"/>
<pad name="20" x="4.445" y="11.43" drill="0.8"/>
<pad name="19" x="4.445" y="8.89" drill="0.8"/>
<pad name="18" x="4.445" y="6.35" drill="0.8"/>
<pad name="17" x="4.445" y="3.81" drill="0.8"/>
<pad name="16" x="4.445" y="1.27" drill="0.8"/>
<pad name="15" x="4.445" y="-1.27" drill="0.8"/>
<pad name="14" x="4.445" y="-3.81" drill="0.8"/>
<pad name="13" x="4.445" y="-6.35" drill="0.8"/>
<pad name="12" x="4.445" y="-8.89" drill="0.8"/>
<pad name="11" x="4.445" y="-11.43" drill="0.8"/>
<wire x1="-3.175" y1="-12.065" x2="3.175" y2="-12.065" width="0.127" layer="21"/>
<wire x1="3.175" y1="-12.065" x2="3.175" y2="12.065" width="0.127" layer="21"/>
<wire x1="3.175" y1="12.065" x2="0.635" y2="12.065" width="0.127" layer="21"/>
<wire x1="0.635" y1="12.065" x2="-0.635" y2="12.065" width="0.127" layer="21"/>
<wire x1="-0.635" y1="12.065" x2="-3.175" y2="12.065" width="0.127" layer="21"/>
<wire x1="-3.175" y1="12.065" x2="-3.175" y2="-12.065" width="0.127" layer="21"/>
<wire x1="-0.635" y1="12.065" x2="0.635" y2="12.065" width="0.127" layer="21" curve="180"/>
<text x="-0.635" y="-7.62" size="1.27" layer="25" rot="R90">&gt;NAME</text>
<text x="1.905" y="-7.62" size="1.27" layer="27" rot="R90">&gt;VALUE</text>
</package>
<package name="20-SOIC">
<smd name="10" x="-4.7" y="-5.7" dx="1.95" dy="0.6" layer="1"/>
<smd name="9" x="-4.7" y="-4.43" dx="1.95" dy="0.6" layer="1"/>
<smd name="8" x="-4.7" y="-3.16" dx="1.95" dy="0.6" layer="1"/>
<smd name="7" x="-4.7" y="-1.89" dx="1.95" dy="0.6" layer="1"/>
<smd name="6" x="-4.7" y="-0.62" dx="1.95" dy="0.6" layer="1"/>
<smd name="5" x="-4.7" y="0.65" dx="1.95" dy="0.6" layer="1"/>
<smd name="4" x="-4.7" y="1.92" dx="1.95" dy="0.6" layer="1"/>
<smd name="3" x="-4.7" y="3.19" dx="1.95" dy="0.6" layer="1"/>
<smd name="2" x="-4.7" y="4.46" dx="1.95" dy="0.6" layer="1"/>
<smd name="1" x="-4.7" y="5.73" dx="1.95" dy="0.6" layer="1" roundness="100"/>
<smd name="11" x="4.72" y="-5.7" dx="1.95" dy="0.6" layer="1"/>
<smd name="12" x="4.72" y="-4.43" dx="1.95" dy="0.6" layer="1"/>
<smd name="13" x="4.72" y="-3.16" dx="1.95" dy="0.6" layer="1"/>
<smd name="14" x="4.72" y="-1.89" dx="1.95" dy="0.6" layer="1"/>
<smd name="15" x="4.72" y="-0.62" dx="1.95" dy="0.6" layer="1"/>
<smd name="16" x="4.72" y="0.65" dx="1.95" dy="0.6" layer="1"/>
<smd name="17" x="4.72" y="1.92" dx="1.95" dy="0.6" layer="1"/>
<smd name="18" x="4.72" y="3.19" dx="1.95" dy="0.6" layer="1"/>
<smd name="19" x="4.72" y="4.46" dx="1.95" dy="0.6" layer="1"/>
<smd name="20" x="4.72" y="5.73" dx="1.95" dy="0.6" layer="1"/>
<wire x1="-2.54" y1="-6.45" x2="-2.54" y2="6.25" width="0.127" layer="21"/>
<wire x1="-2.54" y1="6.25" x2="-0.635" y2="6.25" width="0.127" layer="21"/>
<wire x1="-0.635" y1="6.25" x2="0.635" y2="6.25" width="0.127" layer="21"/>
<wire x1="0.635" y1="6.25" x2="2.54" y2="6.25" width="0.127" layer="21"/>
<wire x1="2.54" y1="6.25" x2="2.54" y2="-6.45" width="0.127" layer="21"/>
<wire x1="2.54" y1="-6.45" x2="-2.54" y2="-6.45" width="0.127" layer="21"/>
<wire x1="-0.635" y1="6.25" x2="0.635" y2="6.25" width="0.127" layer="21" curve="180"/>
<text x="-3.81" y="7.62" size="1.27" layer="25">&gt;NAME</text>
<text x="-3.81" y="8.89" size="1.27" layer="27">&gt;VALUE</text>
<circle x="-1.87" y="5.58" radius="0.18248125" width="0.127" layer="21"/>
</package>
<package name="44-TQFP">
<description>44-Pin Thin Quad Flat Pack
Designed according to the footprint dimensions given by a microchip pdf on their IC packaging designs.</description>
<smd name="12" x="-4" y="-5.7" dx="1.5" dy="0.55" layer="1" rot="R90"/>
<smd name="13" x="-3.2" y="-5.7" dx="1.5" dy="0.55" layer="1" rot="R90"/>
<smd name="14" x="-2.4" y="-5.7" dx="1.5" dy="0.55" layer="1" rot="R90"/>
<smd name="15" x="-1.6" y="-5.7" dx="1.5" dy="0.55" layer="1" rot="R90"/>
<smd name="16" x="-0.8" y="-5.7" dx="1.5" dy="0.55" layer="1" rot="R90"/>
<smd name="17" x="0" y="-5.7" dx="1.5" dy="0.55" layer="1" rot="R90"/>
<smd name="18" x="0.8" y="-5.7" dx="1.5" dy="0.55" layer="1" rot="R90"/>
<smd name="22" x="4" y="-5.7" dx="1.5" dy="0.55" layer="1" rot="R90"/>
<smd name="19" x="1.6" y="-5.7" dx="1.5" dy="0.55" layer="1" rot="R90"/>
<smd name="20" x="2.4" y="-5.7" dx="1.5" dy="0.55" layer="1" rot="R90"/>
<smd name="21" x="3.2" y="-5.7" dx="1.5" dy="0.55" layer="1" rot="R90"/>
<smd name="44" x="-4" y="5.7" dx="1.5" dy="0.55" layer="1" rot="R90"/>
<smd name="43" x="-3.2" y="5.7" dx="1.5" dy="0.55" layer="1" rot="R90"/>
<smd name="42" x="-2.4" y="5.7" dx="1.5" dy="0.55" layer="1" rot="R90"/>
<smd name="41" x="-1.6" y="5.7" dx="1.5" dy="0.55" layer="1" rot="R90"/>
<smd name="40" x="-0.8" y="5.7" dx="1.5" dy="0.55" layer="1" rot="R90"/>
<smd name="39" x="0" y="5.7" dx="1.5" dy="0.55" layer="1" rot="R90"/>
<smd name="38" x="0.8" y="5.7" dx="1.5" dy="0.55" layer="1" rot="R90"/>
<smd name="34" x="4" y="5.7" dx="1.5" dy="0.55" layer="1" rot="R90"/>
<smd name="37" x="1.6" y="5.7" dx="1.5" dy="0.55" layer="1" rot="R90"/>
<smd name="36" x="2.4" y="5.7" dx="1.5" dy="0.55" layer="1" rot="R90"/>
<smd name="35" x="3.2" y="5.7" dx="1.5" dy="0.55" layer="1" rot="R90"/>
<smd name="23" x="5.7" y="-4" dx="1.5" dy="0.55" layer="1" rot="R180"/>
<smd name="24" x="5.7" y="-3.2" dx="1.5" dy="0.55" layer="1" rot="R180"/>
<smd name="25" x="5.7" y="-2.4" dx="1.5" dy="0.55" layer="1" rot="R180"/>
<smd name="26" x="5.7" y="-1.6" dx="1.5" dy="0.55" layer="1" rot="R180"/>
<smd name="27" x="5.7" y="-0.8" dx="1.5" dy="0.55" layer="1" rot="R180"/>
<smd name="28" x="5.7" y="0" dx="1.5" dy="0.55" layer="1" rot="R180"/>
<smd name="29" x="5.7" y="0.8" dx="1.5" dy="0.55" layer="1" rot="R180"/>
<smd name="33" x="5.7" y="4" dx="1.5" dy="0.55" layer="1" rot="R180"/>
<smd name="30" x="5.7" y="1.6" dx="1.5" dy="0.55" layer="1" rot="R180"/>
<smd name="31" x="5.7" y="2.4" dx="1.5" dy="0.55" layer="1" rot="R180"/>
<smd name="32" x="5.7" y="3.2" dx="1.5" dy="0.55" layer="1" rot="R180"/>
<smd name="11" x="-5.7" y="-4" dx="1.5" dy="0.55" layer="1" rot="R180"/>
<smd name="10" x="-5.7" y="-3.2" dx="1.5" dy="0.55" layer="1" rot="R180"/>
<smd name="9" x="-5.7" y="-2.4" dx="1.5" dy="0.55" layer="1" rot="R180"/>
<smd name="8" x="-5.7" y="-1.6" dx="1.5" dy="0.55" layer="1" rot="R180"/>
<smd name="7" x="-5.7" y="-0.8" dx="1.5" dy="0.55" layer="1" rot="R180"/>
<smd name="6" x="-5.7" y="0" dx="1.5" dy="0.55" layer="1" rot="R180"/>
<smd name="5" x="-5.7" y="0.8" dx="1.5" dy="0.55" layer="1" rot="R180"/>
<smd name="1" x="-5.7" y="4" dx="1.5" dy="0.55" layer="1" rot="R180"/>
<smd name="4" x="-5.7" y="1.6" dx="1.5" dy="0.55" layer="1" rot="R180"/>
<smd name="3" x="-5.7" y="2.4" dx="1.5" dy="0.55" layer="1" rot="R180"/>
<smd name="2" x="-5.7" y="3.2" dx="1.5" dy="0.55" layer="1" rot="R180"/>
<wire x1="-4" y1="-4" x2="-4" y2="4" width="0.127" layer="21"/>
<wire x1="-4" y1="4" x2="4" y2="4" width="0.127" layer="21"/>
<wire x1="4" y1="4" x2="4" y2="-4" width="0.127" layer="21"/>
<wire x1="4" y1="-4" x2="-4" y2="-4" width="0.127" layer="21"/>
<circle x="-3" y="3" radius="0.50249375" width="0.127" layer="21"/>
<text x="-3" y="1" size="0.6096" layer="25">&gt;NAME</text>
<text x="-3" y="-2" size="0.6096" layer="27">&gt;VALUE</text>
</package>
<package name="14-DIP">
<description>14-Pin Duel Inline Package</description>
<pad name="7" x="-3.81" y="-7.62" drill="0.8"/>
<pad name="6" x="-3.81" y="-5.08" drill="0.8"/>
<pad name="5" x="-3.81" y="-2.54" drill="0.8"/>
<pad name="4" x="-3.81" y="0" drill="0.8"/>
<pad name="3" x="-3.81" y="2.54" drill="0.8"/>
<pad name="2" x="-3.81" y="5.08" drill="0.8"/>
<pad name="1" x="-3.81" y="7.62" drill="0.8" shape="square"/>
<pad name="8" x="3.81" y="-7.62" drill="0.8"/>
<pad name="9" x="3.81" y="-5.08" drill="0.8"/>
<pad name="10" x="3.81" y="-2.54" drill="0.8"/>
<pad name="11" x="3.81" y="0" drill="0.8"/>
<pad name="12" x="3.81" y="2.54" drill="0.8"/>
<pad name="13" x="3.81" y="5.08" drill="0.8"/>
<pad name="14" x="3.81" y="7.62" drill="0.8"/>
<wire x1="-3.175" y1="-9.525" x2="3.175" y2="-9.525" width="0.127" layer="21"/>
<wire x1="3.175" y1="-9.525" x2="3.175" y2="9.525" width="0.127" layer="21"/>
<wire x1="3.175" y1="9.525" x2="0.635" y2="9.525" width="0.127" layer="21"/>
<wire x1="0.635" y1="9.525" x2="-0.635" y2="9.525" width="0.127" layer="21"/>
<wire x1="-0.635" y1="9.525" x2="-3.175" y2="9.525" width="0.127" layer="21"/>
<wire x1="-3.175" y1="9.525" x2="-3.175" y2="-9.525" width="0.127" layer="21"/>
<wire x1="0.635" y1="9.525" x2="-0.635" y2="9.525" width="0.127" layer="21" curve="-180"/>
<circle x="-1.905" y="8.255" radius="0.635" width="0.127" layer="21"/>
<text x="-1.27" y="-7.62" size="1.27" layer="25" rot="R90">&gt;NAME</text>
<text x="2.54" y="-7.62" size="1.27" layer="27" rot="R90">&gt;VALUE</text>
</package>
<package name="14-SOIC">
<description>14-Pin Small Outline Package</description>
<smd name="1" x="-2.69875" y="3.81" dx="1.016" dy="0.508" layer="1" roundness="70"/>
<smd name="2" x="-2.69875" y="2.54" dx="1.016" dy="0.508" layer="1"/>
<smd name="3" x="-2.69875" y="1.27" dx="1.016" dy="0.508" layer="1"/>
<smd name="4" x="-2.69875" y="0" dx="1.016" dy="0.508" layer="1"/>
<smd name="5" x="-2.69875" y="-1.27" dx="1.016" dy="0.508" layer="1"/>
<smd name="6" x="-2.69875" y="-2.54" dx="1.016" dy="0.508" layer="1"/>
<smd name="7" x="-2.69875" y="-3.81" dx="1.016" dy="0.508" layer="1"/>
<smd name="8" x="2.69875" y="-3.81" dx="1.016" dy="0.508" layer="1"/>
<smd name="9" x="2.69875" y="-2.54" dx="1.016" dy="0.508" layer="1"/>
<smd name="10" x="2.69875" y="-1.27" dx="1.016" dy="0.508" layer="1"/>
<smd name="11" x="2.69875" y="0" dx="1.016" dy="0.508" layer="1"/>
<smd name="12" x="2.69875" y="1.27" dx="1.016" dy="0.508" layer="1"/>
<smd name="13" x="2.69875" y="2.54" dx="1.016" dy="0.508" layer="1"/>
<smd name="14" x="2.69875" y="3.81" dx="1.016" dy="0.508" layer="1"/>
<wire x1="-1.905" y1="-4.1275" x2="1.905" y2="-4.1275" width="0.127" layer="21"/>
<wire x1="1.905" y1="-4.1275" x2="1.905" y2="4.1275" width="0.127" layer="21"/>
<wire x1="1.905" y1="4.1275" x2="-1.905" y2="4.1275" width="0.127" layer="21"/>
<wire x1="-1.905" y1="4.1275" x2="-1.905" y2="-4.1275" width="0.127" layer="21"/>
<circle x="-0.9525" y="3.175" radius="0.3175" width="0.127" layer="21"/>
<text x="-3.81" y="5.08" size="1.27" layer="25">&gt;NAME</text>
<text x="-3.81" y="-6.35" size="1.27" layer="27">&gt;VALUE</text>
</package>
<package name="16-QFN">
<description>14 Pin Quad Flat Pack No-Leads</description>
<smd name="1" x="-2" y="0.95" dx="0.6096" dy="0.3048" layer="1"/>
<smd name="2" x="-2" y="0.3" dx="0.6096" dy="0.3048" layer="1"/>
<smd name="3" x="-2" y="-0.35" dx="0.6096" dy="0.3048" layer="1"/>
<smd name="4" x="-2" y="-1" dx="0.6096" dy="0.3048" layer="1"/>
<smd name="5" x="-0.95" y="-2" dx="0.6096" dy="0.3048" layer="1" rot="R90"/>
<smd name="6" x="-0.3" y="-2" dx="0.6096" dy="0.3048" layer="1" rot="R90"/>
<smd name="7" x="0.35" y="-2" dx="0.6096" dy="0.3048" layer="1" rot="R90"/>
<smd name="8" x="1" y="-2" dx="0.6096" dy="0.3048" layer="1" rot="R90"/>
<smd name="9" x="2" y="-0.95" dx="0.6096" dy="0.3048" layer="1" rot="R180"/>
<smd name="10" x="2" y="-0.3" dx="0.6096" dy="0.3048" layer="1" rot="R180"/>
<smd name="11" x="2" y="0.35" dx="0.6096" dy="0.3048" layer="1" rot="R180"/>
<smd name="12" x="2" y="1" dx="0.6096" dy="0.3048" layer="1" rot="R180"/>
<smd name="13" x="0.95" y="2" dx="0.6096" dy="0.3048" layer="1" rot="R270"/>
<smd name="14" x="0.3" y="2" dx="0.6096" dy="0.3048" layer="1" rot="R270"/>
<smd name="15" x="-0.35" y="2" dx="0.6096" dy="0.3048" layer="1" rot="R270"/>
<smd name="16" x="-1" y="2" dx="0.6096" dy="0.3048" layer="1" rot="R270"/>
<wire x1="-2" y1="1.5" x2="-2" y2="2" width="0.127" layer="21"/>
<wire x1="-2" y1="2" x2="-1.5" y2="2" width="0.127" layer="21"/>
<wire x1="1.5" y1="2" x2="2" y2="2" width="0.127" layer="21"/>
<wire x1="2" y1="2" x2="2" y2="1.5" width="0.127" layer="21"/>
<wire x1="2" y1="-1.5" x2="2" y2="-2" width="0.127" layer="21"/>
<wire x1="2" y1="-2" x2="1.5" y2="-2" width="0.127" layer="21"/>
<wire x1="-1.5" y1="-2" x2="-2" y2="-2" width="0.127" layer="21"/>
<wire x1="-2" y1="-2" x2="-2" y2="-1.5" width="0.127" layer="21"/>
<circle x="-1" y="1" radius="0.15" width="0.127" layer="21"/>
<text x="-2.5" y="3.5" size="0.8128" layer="25">&gt;NAME</text>
<text x="-2.5" y="2.5" size="0.8128" layer="27">&gt;VALUE</text>
</package>
<package name="14-TSSOP">
<description>14-Pin Thin Shrink Small Outline Package</description>
<smd name="6" x="-2.95" y="-1.3" dx="1.4" dy="0.4" layer="1"/>
<smd name="7" x="-2.95" y="-1.95" dx="1.4" dy="0.4" layer="1"/>
<smd name="4" x="-2.95" y="0" dx="1.4" dy="0.4" layer="1"/>
<smd name="5" x="-2.95" y="-0.65" dx="1.4" dy="0.4" layer="1"/>
<smd name="3" x="-2.95" y="0.65" dx="1.4" dy="0.4" layer="1"/>
<smd name="2" x="-2.95" y="1.3" dx="1.4" dy="0.4" layer="1"/>
<smd name="1" x="-2.95" y="1.95" dx="1.4" dy="0.4" layer="1"/>
<smd name="8" x="2.95" y="-1.95" dx="1.4" dy="0.4" layer="1"/>
<smd name="9" x="2.95" y="-1.3" dx="1.4" dy="0.4" layer="1"/>
<smd name="11" x="2.95" y="0" dx="1.4" dy="0.4" layer="1"/>
<smd name="10" x="2.95" y="-0.65" dx="1.4" dy="0.4" layer="1"/>
<smd name="12" x="2.95" y="0.65" dx="1.4" dy="0.4" layer="1"/>
<smd name="13" x="2.95" y="1.3" dx="1.4" dy="0.4" layer="1"/>
<smd name="14" x="2.95" y="1.95" dx="1.4" dy="0.4" layer="1"/>
<wire x1="-2.2" y1="-2.5" x2="2.2" y2="-2.5" width="0.127" layer="21"/>
<wire x1="2.2" y1="-2.5" x2="2.2" y2="2.5" width="0.127" layer="21"/>
<wire x1="2.2" y1="2.5" x2="-2.2" y2="2.5" width="0.127" layer="21"/>
<wire x1="-2.2" y1="2.5" x2="-2.2" y2="-2.5" width="0.127" layer="21"/>
<circle x="-1.7" y="2" radius="0.1581125" width="0.127" layer="21"/>
<text x="-2.5" y="4" size="0.6096" layer="25">&gt;NAME</text>
<text x="-2.5" y="3" size="0.6096" layer="27">&gt;VALUE</text>
</package>
<package name="64-TQFP">
<smd name="1" x="-5.51" y="3.5" dx="1.45" dy="0.25" layer="1"/>
<smd name="2" x="-5.51" y="3" dx="1.45" dy="0.25" layer="1"/>
<smd name="3" x="-5.51" y="2.5" dx="1.45" dy="0.25" layer="1"/>
<smd name="4" x="-5.51" y="2" dx="1.45" dy="0.25" layer="1"/>
<smd name="5" x="-5.51" y="1.5" dx="1.45" dy="0.25" layer="1"/>
<smd name="6" x="-5.51" y="1" dx="1.45" dy="0.25" layer="1"/>
<smd name="7" x="-5.51" y="0.5" dx="1.45" dy="0.25" layer="1"/>
<smd name="8" x="-5.51" y="0" dx="1.45" dy="0.25" layer="1"/>
<smd name="9" x="-5.51" y="-0.5" dx="1.45" dy="0.25" layer="1"/>
<smd name="10" x="-5.51" y="-1" dx="1.45" dy="0.25" layer="1"/>
<smd name="11" x="-5.51" y="-1.5" dx="1.45" dy="0.25" layer="1"/>
<smd name="12" x="-5.51" y="-2" dx="1.45" dy="0.25" layer="1"/>
<smd name="13" x="-5.51" y="-2.5" dx="1.45" dy="0.25" layer="1"/>
<smd name="14" x="-5.51" y="-3" dx="1.45" dy="0.25" layer="1"/>
<smd name="15" x="-5.51" y="-3.5" dx="1.45" dy="0.25" layer="1"/>
<smd name="16" x="-5.51" y="-4" dx="1.45" dy="0.25" layer="1"/>
<smd name="17" x="-3.5" y="-5.91" dx="1.45" dy="0.25" layer="1" rot="R90"/>
<smd name="18" x="-3" y="-5.91" dx="1.45" dy="0.25" layer="1" rot="R90"/>
<smd name="19" x="-2.5" y="-5.91" dx="1.45" dy="0.25" layer="1" rot="R90"/>
<smd name="20" x="-2" y="-5.91" dx="1.45" dy="0.25" layer="1" rot="R90"/>
<smd name="21" x="-1.5" y="-5.91" dx="1.45" dy="0.25" layer="1" rot="R90"/>
<smd name="22" x="-1" y="-5.91" dx="1.45" dy="0.25" layer="1" rot="R90"/>
<smd name="23" x="-0.5" y="-5.91" dx="1.45" dy="0.25" layer="1" rot="R90"/>
<smd name="24" x="0" y="-5.91" dx="1.45" dy="0.25" layer="1" rot="R90"/>
<smd name="25" x="0.5" y="-5.91" dx="1.45" dy="0.25" layer="1" rot="R90"/>
<smd name="26" x="1" y="-5.91" dx="1.45" dy="0.25" layer="1" rot="R90"/>
<smd name="27" x="1.5" y="-5.91" dx="1.45" dy="0.25" layer="1" rot="R90"/>
<smd name="28" x="2" y="-5.91" dx="1.45" dy="0.25" layer="1" rot="R90"/>
<smd name="29" x="2.5" y="-5.91" dx="1.45" dy="0.25" layer="1" rot="R90"/>
<smd name="30" x="3" y="-5.91" dx="1.45" dy="0.25" layer="1" rot="R90"/>
<smd name="31" x="3.5" y="-5.91" dx="1.45" dy="0.25" layer="1" rot="R90"/>
<smd name="32" x="4" y="-5.91" dx="1.45" dy="0.25" layer="1" rot="R90"/>
<smd name="33" x="5.91" y="-4" dx="1.45" dy="0.25" layer="1" rot="R180"/>
<smd name="34" x="5.91" y="-3.5" dx="1.45" dy="0.25" layer="1" rot="R180"/>
<smd name="35" x="5.91" y="-3" dx="1.45" dy="0.25" layer="1" rot="R180"/>
<smd name="36" x="5.91" y="-2.5" dx="1.45" dy="0.25" layer="1" rot="R180"/>
<smd name="37" x="5.91" y="-2" dx="1.45" dy="0.25" layer="1" rot="R180"/>
<smd name="38" x="5.91" y="-1.5" dx="1.45" dy="0.25" layer="1" rot="R180"/>
<smd name="39" x="5.91" y="-1" dx="1.45" dy="0.25" layer="1" rot="R180"/>
<smd name="40" x="5.91" y="-0.5" dx="1.45" dy="0.25" layer="1" rot="R180"/>
<smd name="41" x="5.91" y="0" dx="1.45" dy="0.25" layer="1" rot="R180"/>
<smd name="42" x="5.91" y="0.5" dx="1.45" dy="0.25" layer="1" rot="R180"/>
<smd name="43" x="5.91" y="1" dx="1.45" dy="0.25" layer="1" rot="R180"/>
<smd name="44" x="5.91" y="1.5" dx="1.45" dy="0.25" layer="1" rot="R180"/>
<smd name="45" x="5.91" y="2" dx="1.45" dy="0.25" layer="1" rot="R180"/>
<smd name="46" x="5.91" y="2.5" dx="1.45" dy="0.25" layer="1" rot="R180"/>
<smd name="47" x="5.91" y="3" dx="1.45" dy="0.25" layer="1" rot="R180"/>
<smd name="48" x="5.91" y="3.5" dx="1.45" dy="0.25" layer="1" rot="R180"/>
<smd name="49" x="4" y="5.51" dx="1.45" dy="0.25" layer="1" rot="R270"/>
<smd name="50" x="3.5" y="5.51" dx="1.45" dy="0.25" layer="1" rot="R270"/>
<smd name="51" x="3" y="5.51" dx="1.45" dy="0.25" layer="1" rot="R270"/>
<smd name="52" x="2.5" y="5.51" dx="1.45" dy="0.25" layer="1" rot="R270"/>
<smd name="53" x="2" y="5.51" dx="1.45" dy="0.25" layer="1" rot="R270"/>
<smd name="54" x="1.5" y="5.51" dx="1.45" dy="0.25" layer="1" rot="R270"/>
<smd name="55" x="1" y="5.51" dx="1.45" dy="0.25" layer="1" rot="R270"/>
<smd name="56" x="0.5" y="5.51" dx="1.45" dy="0.25" layer="1" rot="R270"/>
<smd name="57" x="0" y="5.51" dx="1.45" dy="0.25" layer="1" rot="R270"/>
<smd name="58" x="-0.5" y="5.51" dx="1.45" dy="0.25" layer="1" rot="R270"/>
<smd name="59" x="-1" y="5.51" dx="1.45" dy="0.25" layer="1" rot="R270"/>
<smd name="60" x="-1.5" y="5.51" dx="1.45" dy="0.25" layer="1" rot="R270"/>
<smd name="61" x="-2" y="5.51" dx="1.45" dy="0.25" layer="1" rot="R270"/>
<smd name="62" x="-2.5" y="5.51" dx="1.45" dy="0.25" layer="1" rot="R270"/>
<smd name="63" x="-3" y="5.51" dx="1.45" dy="0.25" layer="1" rot="R270"/>
<smd name="64" x="-3.5" y="5.51" dx="1.45" dy="0.25" layer="1" rot="R270"/>
<wire x1="-5.3" y1="4" x2="-5.3" y2="5" width="0.127" layer="21"/>
<wire x1="-5.3" y1="5" x2="-4.3" y2="5" width="0.127" layer="21"/>
<wire x1="4.7" y1="5" x2="5.7" y2="5" width="0.127" layer="21"/>
<wire x1="5.7" y1="5" x2="5.7" y2="4" width="0.127" layer="21"/>
<wire x1="5.7" y1="-4.5" x2="5.7" y2="-5.5" width="0.127" layer="21"/>
<wire x1="5.7" y1="-5.5" x2="4.7" y2="-5.5" width="0.127" layer="21"/>
<wire x1="-4.3" y1="-5.5" x2="-5.3" y2="-5.5" width="0.127" layer="21"/>
<wire x1="-5.3" y1="-5.5" x2="-5.3" y2="-4.5" width="0.127" layer="21"/>
<circle x="-3.5" y="3.4" radius="0.316225" width="0.127" layer="21"/>
<circle x="-3.5" y="3.4" radius="0.22360625" width="0.127" layer="21"/>
<circle x="-3.5" y="3.4" radius="0.1" width="0.127" layer="21"/>
<text x="-5.5" y="9" size="1.27" layer="25">&gt;NAME</text>
<text x="-5.5" y="7" size="1.27" layer="27">&gt;VALUE</text>
</package>
<package name="20-SSOP">
<smd name="1" x="-3.5" y="2.9" dx="1.75" dy="0.45" layer="1"/>
<smd name="2" x="-3.5" y="2.25" dx="1.75" dy="0.45" layer="1"/>
<smd name="3" x="-3.5" y="1.6" dx="1.75" dy="0.45" layer="1"/>
<smd name="4" x="-3.5" y="0.95" dx="1.75" dy="0.45" layer="1"/>
<smd name="5" x="-3.5" y="0.3" dx="1.75" dy="0.45" layer="1"/>
<smd name="6" x="-3.5" y="-0.35" dx="1.75" dy="0.45" layer="1"/>
<smd name="7" x="-3.5" y="-1" dx="1.75" dy="0.45" layer="1"/>
<smd name="8" x="-3.5" y="-1.65" dx="1.75" dy="0.45" layer="1"/>
<smd name="9" x="-3.5" y="-2.3" dx="1.75" dy="0.45" layer="1"/>
<smd name="10" x="-3.5" y="-2.95" dx="1.75" dy="0.45" layer="1"/>
<smd name="11" x="3.75" y="-2.95" dx="1.75" dy="0.45" layer="1"/>
<smd name="12" x="3.75" y="-2.3" dx="1.75" dy="0.45" layer="1"/>
<smd name="13" x="3.75" y="-1.65" dx="1.75" dy="0.45" layer="1"/>
<smd name="14" x="3.75" y="-1" dx="1.75" dy="0.45" layer="1"/>
<smd name="15" x="3.75" y="-0.35" dx="1.75" dy="0.45" layer="1"/>
<smd name="16" x="3.75" y="0.3" dx="1.75" dy="0.45" layer="1"/>
<smd name="17" x="3.75" y="0.95" dx="1.75" dy="0.45" layer="1"/>
<smd name="18" x="3.75" y="1.6" dx="1.75" dy="0.45" layer="1"/>
<smd name="19" x="3.75" y="2.25" dx="1.75" dy="0.45" layer="1"/>
<smd name="20" x="3.75" y="2.9" dx="1.75" dy="0.45" layer="1"/>
<wire x1="-2.2" y1="3.55" x2="-2.2" y2="-3.6" width="0.127" layer="21"/>
<wire x1="-2.2" y1="-3.6" x2="2.35" y2="-3.6" width="0.127" layer="21"/>
<wire x1="2.35" y1="-3.6" x2="2.35" y2="3.55" width="0.127" layer="21"/>
<wire x1="2.35" y1="3.55" x2="-2.2" y2="3.55" width="0.127" layer="21"/>
<circle x="-3.5" y="3.9" radius="0.1" width="0.127" layer="21"/>
<wire x1="0.7" y1="3.45" x2="-0.6" y2="3.45" width="0.127" layer="21" curve="-180"/>
<text x="-3.25" y="5.2" size="1.27" layer="25">&gt;NAME</text>
<text x="-3.25" y="6.5" size="1.27" layer="27">&gt;VALUE</text>
</package>
<package name="20-QFN">
<smd name="1" x="-2" y="1" dx="0.73" dy="0.3" layer="1"/>
<smd name="2" x="-2" y="0.5" dx="0.73" dy="0.3" layer="1"/>
<smd name="3" x="-2" y="0" dx="0.73" dy="0.3" layer="1"/>
<smd name="4" x="-2" y="-0.5" dx="0.73" dy="0.3" layer="1"/>
<smd name="5" x="-2" y="-1" dx="0.73" dy="0.3" layer="1"/>
<smd name="6" x="-1" y="-2" dx="0.73" dy="0.3" layer="1" rot="R90"/>
<smd name="7" x="-0.5" y="-2" dx="0.73" dy="0.3" layer="1" rot="R90"/>
<smd name="8" x="0" y="-2" dx="0.73" dy="0.3" layer="1" rot="R90"/>
<smd name="9" x="0.5" y="-2" dx="0.73" dy="0.3" layer="1" rot="R90"/>
<smd name="10" x="1" y="-2" dx="0.73" dy="0.3" layer="1" rot="R90"/>
<smd name="11" x="2" y="-1" dx="0.73" dy="0.3" layer="1" rot="R180"/>
<smd name="12" x="2" y="-0.5" dx="0.73" dy="0.3" layer="1" rot="R180"/>
<smd name="13" x="2" y="0" dx="0.73" dy="0.3" layer="1" rot="R180"/>
<smd name="14" x="2" y="0.5" dx="0.73" dy="0.3" layer="1" rot="R180"/>
<smd name="15" x="2" y="1" dx="0.73" dy="0.3" layer="1" rot="R180"/>
<smd name="16" x="1" y="2" dx="0.73" dy="0.3" layer="1" rot="R270"/>
<smd name="17" x="0.5" y="2" dx="0.73" dy="0.3" layer="1" rot="R270"/>
<smd name="18" x="0" y="2" dx="0.73" dy="0.3" layer="1" rot="R270"/>
<smd name="19" x="-0.5" y="2" dx="0.73" dy="0.3" layer="1" rot="R270"/>
<smd name="20" x="-1" y="2" dx="0.73" dy="0.3" layer="1" rot="R270"/>
<wire x1="-2" y1="1.5" x2="-2" y2="2" width="0.127" layer="21"/>
<wire x1="-2" y1="2" x2="-1.5" y2="2" width="0.127" layer="21"/>
<wire x1="1.5" y1="2" x2="2" y2="2" width="0.127" layer="21"/>
<wire x1="2" y1="2" x2="2" y2="1.5" width="0.127" layer="21"/>
<wire x1="2" y1="-1.5" x2="2" y2="-2" width="0.127" layer="21"/>
<wire x1="2" y1="-2" x2="1.5" y2="-2" width="0.127" layer="21"/>
<wire x1="-1.5" y1="-2" x2="-2" y2="-2" width="0.127" layer="21"/>
<wire x1="-2" y1="-2" x2="-2" y2="-1.5" width="0.127" layer="21"/>
<circle x="-2.5" y="2" radius="0.14035625" width="0.127" layer="21"/>
<text x="-3.81" y="3.81" size="1.27" layer="25">&gt;NAME</text>
<text x="-3.81" y="5.08" size="1.27" layer="27">&gt;VALUE</text>
</package>
<package name="20-UQFN">
<smd name="1" x="-2" y="1" dx="0.8" dy="0.3" layer="1" roundness="100"/>
<smd name="2" x="-2" y="0.5" dx="0.8" dy="0.3" layer="1" roundness="100"/>
<smd name="3" x="-2" y="0" dx="0.8" dy="0.3" layer="1" roundness="100"/>
<smd name="4" x="-2" y="-0.5" dx="0.8" dy="0.3" layer="1" roundness="100"/>
<smd name="5" x="-2" y="-1" dx="0.8" dy="0.3" layer="1" roundness="100"/>
<smd name="6" x="-1" y="-2" dx="0.8" dy="0.3" layer="1" roundness="100" rot="R90"/>
<smd name="7" x="-0.5" y="-2" dx="0.8" dy="0.3" layer="1" roundness="100" rot="R90"/>
<smd name="8" x="0" y="-2" dx="0.8" dy="0.3" layer="1" roundness="100" rot="R90"/>
<smd name="9" x="0.5" y="-2" dx="0.8" dy="0.3" layer="1" roundness="100" rot="R90"/>
<smd name="10" x="1" y="-2" dx="0.8" dy="0.3" layer="1" roundness="100" rot="R90"/>
<smd name="11" x="2" y="-1" dx="0.8" dy="0.3" layer="1" roundness="100" rot="R180"/>
<smd name="12" x="2" y="-0.5" dx="0.8" dy="0.3" layer="1" roundness="100" rot="R180"/>
<smd name="13" x="2" y="0" dx="0.8" dy="0.3" layer="1" roundness="100" rot="R180"/>
<smd name="14" x="2" y="0.5" dx="0.8" dy="0.3" layer="1" roundness="100" rot="R180"/>
<smd name="15" x="2" y="1" dx="0.8" dy="0.3" layer="1" roundness="100" rot="R180"/>
<smd name="16" x="1" y="2" dx="0.8" dy="0.3" layer="1" roundness="100" rot="R270"/>
<smd name="17" x="0.5" y="2" dx="0.8" dy="0.3" layer="1" roundness="100" rot="R270"/>
<smd name="18" x="0" y="2" dx="0.8" dy="0.3" layer="1" roundness="100" rot="R270"/>
<smd name="19" x="-0.5" y="2" dx="0.8" dy="0.3" layer="1" roundness="100" rot="R270"/>
<smd name="20" x="-1" y="2" dx="0.8" dy="0.3" layer="1" roundness="100" rot="R270"/>
<wire x1="-2" y1="1.5" x2="-2" y2="2" width="0.127" layer="21"/>
<wire x1="-2" y1="2" x2="-1.5" y2="2" width="0.127" layer="21"/>
<wire x1="1.5" y1="2" x2="2" y2="2" width="0.127" layer="21"/>
<wire x1="2" y1="2" x2="2" y2="1.5" width="0.127" layer="21"/>
<wire x1="2" y1="-1.5" x2="2" y2="-2" width="0.127" layer="21"/>
<wire x1="2" y1="-2" x2="1.5" y2="-2" width="0.127" layer="21"/>
<wire x1="-1.5" y1="-2" x2="-2" y2="-2" width="0.127" layer="21"/>
<wire x1="-2" y1="-2" x2="-2" y2="-1.5" width="0.127" layer="21"/>
<circle x="-2.7" y="1.7" radius="0.14141875" width="0.127" layer="21"/>
<text x="-2.54" y="3.81" size="1.27" layer="25">&gt;NAME</text>
<text x="-2.54" y="5.08" size="1.27" layer="27">&gt;VALUE</text>
</package>
</packages>
<symbols>
<symbol name="PIC12F1822">
<wire x1="-12.7" y1="10.16" x2="-12.7" y2="-7.62" width="0.254" layer="94"/>
<wire x1="-12.7" y1="-7.62" x2="12.7" y2="-7.62" width="0.254" layer="94"/>
<wire x1="12.7" y1="-7.62" x2="12.7" y2="10.16" width="0.254" layer="94"/>
<wire x1="12.7" y1="10.16" x2="-12.7" y2="10.16" width="0.254" layer="94"/>
<pin name="VDD" x="-17.78" y="7.62" length="middle"/>
<pin name="RA5" x="17.78" y="7.62" length="middle" rot="R180"/>
<pin name="RA4" x="17.78" y="5.08" length="middle" rot="R180"/>
<pin name="MCLR'/VPP/RA3" x="17.78" y="2.54" length="middle" rot="R180"/>
<pin name="RA2" x="17.78" y="0" length="middle" rot="R180"/>
<pin name="RA1/ICSPCLK" x="17.78" y="-2.54" length="middle" rot="R180"/>
<pin name="RA0/ICSPDAT" x="17.78" y="-5.08" length="middle" rot="R180"/>
<pin name="VSS" x="-17.78" y="-5.08" length="middle"/>
<text x="-12.7" y="10.16" size="1.778" layer="95">&gt;NAME</text>
<text x="12.7" y="-7.62" size="1.778" layer="96" rot="R180">&gt;VALUE</text>
</symbol>
<symbol name="PIC18F13K22">
<wire x1="-15.24" y1="17.78" x2="-15.24" y2="-20.32" width="0.254" layer="94"/>
<wire x1="-15.24" y1="-20.32" x2="15.24" y2="-20.32" width="0.254" layer="94"/>
<wire x1="15.24" y1="-20.32" x2="15.24" y2="17.78" width="0.254" layer="94"/>
<wire x1="15.24" y1="17.78" x2="-15.24" y2="17.78" width="0.254" layer="94"/>
<pin name="VDD" x="-20.32" y="15.24" length="middle"/>
<pin name="VSS" x="-20.32" y="10.16" length="middle"/>
<pin name="RA0/PGD" x="-20.32" y="-5.08" length="middle"/>
<pin name="RA1/PGC" x="-20.32" y="-7.62" length="middle"/>
<pin name="RA2" x="-20.32" y="-10.16" length="middle"/>
<pin name="RA4/OSC2" x="-20.32" y="-15.24" length="middle"/>
<pin name="RA3/MCLR'" x="-20.32" y="-12.7" length="middle"/>
<pin name="SDI/RB4" x="20.32" y="15.24" length="middle" rot="R180"/>
<pin name="RB5" x="20.32" y="12.7" length="middle" rot="R180"/>
<pin name="SCL/RB6" x="20.32" y="10.16" length="middle" rot="R180"/>
<pin name="RB7" x="20.32" y="7.62" length="middle" rot="R180"/>
<pin name="RC0" x="20.32" y="0" length="middle" rot="R180"/>
<pin name="RC1" x="20.32" y="-2.54" length="middle" rot="R180"/>
<pin name="P1D/RC2" x="20.32" y="-5.08" length="middle" rot="R180"/>
<pin name="P1C/PGM/RC3" x="20.32" y="-7.62" length="middle" rot="R180"/>
<pin name="P1B/RC4" x="20.32" y="-10.16" length="middle" rot="R180"/>
<pin name="P1A/RC5" x="20.32" y="-12.7" length="middle" rot="R180"/>
<pin name="SS'/RC6" x="20.32" y="-15.24" length="middle" rot="R180"/>
<pin name="SDO/RC7" x="20.32" y="-17.78" length="middle" rot="R180"/>
<text x="-12.7" y="5.08" size="1.27" layer="95">&gt;NAME</text>
<text x="-12.7" y="0" size="1.27" layer="96">&gt;VALUE</text>
<pin name="RA5/OSC1" x="-20.32" y="-17.78" length="middle"/>
</symbol>
<symbol name="PIC32MX210F016D">
<wire x1="-2.54" y1="2.54" x2="45.72" y2="2.54" width="0.254" layer="94"/>
<wire x1="45.72" y1="2.54" x2="45.72" y2="-43.18" width="0.254" layer="94"/>
<wire x1="45.72" y1="-43.18" x2="-2.54" y2="-43.18" width="0.254" layer="94"/>
<wire x1="-2.54" y1="-43.18" x2="-2.54" y2="2.54" width="0.254" layer="94"/>
<pin name="RB9" x="-7.62" y="-5.08" length="middle"/>
<pin name="RC6" x="-7.62" y="-7.62" length="middle"/>
<pin name="RC7" x="-7.62" y="-10.16" length="middle"/>
<pin name="RC8" x="-7.62" y="-12.7" length="middle"/>
<pin name="RC9" x="-7.62" y="-15.24" length="middle"/>
<pin name="VSS1" x="-7.62" y="-17.78" length="middle"/>
<pin name="VCAP" x="-7.62" y="-20.32" length="middle"/>
<pin name="RB10/PGED2" x="-7.62" y="-22.86" length="middle"/>
<pin name="RB11/PGEC2" x="-7.62" y="-25.4" length="middle"/>
<pin name="VUSB3V3" x="-7.62" y="-27.94" length="middle"/>
<pin name="RB13" x="-7.62" y="-30.48" length="middle"/>
<pin name="RA10" x="10.16" y="-48.26" length="middle" rot="R90"/>
<pin name="RA7" x="12.7" y="-48.26" length="middle" rot="R90"/>
<pin name="RB14" x="15.24" y="-48.26" length="middle" rot="R90"/>
<pin name="RB15" x="17.78" y="-48.26" length="middle" rot="R90"/>
<pin name="AVSS" x="20.32" y="-48.26" length="middle" rot="R90"/>
<pin name="AVDD" x="22.86" y="-48.26" length="middle" rot="R90"/>
<pin name="MCLR'" x="25.4" y="-48.26" length="middle" rot="R90"/>
<pin name="RA0/PGED3" x="27.94" y="-48.26" length="middle" rot="R90"/>
<pin name="RA1/PGEC3" x="30.48" y="-48.26" length="middle" rot="R90"/>
<pin name="RB0/PGED1" x="33.02" y="-48.26" length="middle" rot="R90"/>
<pin name="RB1/PGEC1" x="35.56" y="-48.26" length="middle" rot="R90"/>
<pin name="RB2" x="50.8" y="-30.48" length="middle" rot="R180"/>
<pin name="RB3" x="50.8" y="-27.94" length="middle" rot="R180"/>
<pin name="RC0" x="50.8" y="-25.4" length="middle" rot="R180"/>
<pin name="RC1" x="50.8" y="-22.86" length="middle" rot="R180"/>
<pin name="RC2" x="50.8" y="-20.32" length="middle" rot="R180"/>
<pin name="VDD3" x="50.8" y="-17.78" length="middle" rot="R180"/>
<pin name="VSS3" x="50.8" y="-15.24" length="middle" rot="R180"/>
<pin name="RA2" x="50.8" y="-12.7" length="middle" rot="R180"/>
<pin name="RA3" x="50.8" y="-10.16" length="middle" rot="R180"/>
<pin name="RA8" x="50.8" y="-7.62" length="middle" rot="R180"/>
<pin name="RB4" x="50.8" y="-5.08" length="middle" rot="R180"/>
<pin name="RA4" x="35.56" y="7.62" length="middle" rot="R270"/>
<pin name="RA9" x="33.02" y="7.62" length="middle" rot="R270"/>
<pin name="RC3" x="30.48" y="7.62" length="middle" rot="R270"/>
<pin name="RC4" x="27.94" y="7.62" length="middle" rot="R270"/>
<pin name="RC5" x="25.4" y="7.62" length="middle" rot="R270"/>
<pin name="VSS4" x="22.86" y="7.62" length="middle" rot="R270"/>
<pin name="VDD4" x="20.32" y="7.62" length="middle" rot="R270"/>
<pin name="RB5" x="17.78" y="7.62" length="middle" rot="R270"/>
<pin name="VBUS" x="15.24" y="7.62" length="middle" rot="R270"/>
<pin name="RB7" x="12.7" y="7.62" length="middle" rot="R270"/>
<pin name="RB8" x="10.16" y="7.62" length="middle" rot="R270"/>
<circle x="0" y="0" radius="1.04726875" width="0.254" layer="94"/>
<text x="10.16" y="-12.7" size="1.016" layer="95">&gt;NAME</text>
<text x="10.16" y="-17.78" size="1.016" layer="96">&gt;VALUE</text>
</symbol>
<symbol name="PIC16F1823">
<pin name="VDD" x="-17.78" y="7.62" length="middle"/>
<pin name="RA5/OSC1" x="-17.78" y="5.08" length="middle"/>
<pin name="RA4/OSC2" x="-17.78" y="2.54" length="middle"/>
<pin name="RA3/VPP" x="-17.78" y="0" length="middle"/>
<pin name="RC5" x="-17.78" y="-2.54" length="middle"/>
<pin name="RC4" x="-17.78" y="-5.08" length="middle"/>
<pin name="RC3" x="-17.78" y="-7.62" length="middle"/>
<pin name="RC2" x="20.32" y="-7.62" length="middle" rot="R180"/>
<pin name="RC1" x="20.32" y="-5.08" length="middle" rot="R180"/>
<pin name="RC0" x="20.32" y="-2.54" length="middle" rot="R180"/>
<pin name="RA2" x="20.32" y="0" length="middle" rot="R180"/>
<pin name="RA1/CLK" x="20.32" y="2.54" length="middle" rot="R180"/>
<pin name="RA0/DAT" x="20.32" y="5.08" length="middle" rot="R180"/>
<pin name="VSS" x="20.32" y="7.62" length="middle" rot="R180"/>
<wire x1="-12.7" y1="12.7" x2="-12.7" y2="-12.7" width="0.254" layer="94"/>
<wire x1="-12.7" y1="-12.7" x2="15.24" y2="-12.7" width="0.254" layer="94"/>
<wire x1="15.24" y1="-12.7" x2="15.24" y2="12.7" width="0.254" layer="94"/>
<wire x1="15.24" y1="12.7" x2="-12.7" y2="12.7" width="0.254" layer="94"/>
<circle x="-7.62" y="10.16" radius="1.04726875" width="0.254" layer="94"/>
<text x="-12.7" y="15.24" size="1.27" layer="95">&gt;NAME</text>
<text x="-12.7" y="12.7" size="1.27" layer="96">&gt;VALUE</text>
</symbol>
<symbol name="PIC32MX340F512H">
<wire x1="-27.94" y1="27.94" x2="-27.94" y2="-30.48" width="0.254" layer="94"/>
<wire x1="-27.94" y1="-30.48" x2="30.48" y2="-30.48" width="0.254" layer="94"/>
<wire x1="30.48" y1="-30.48" x2="30.48" y2="27.94" width="0.254" layer="94"/>
<wire x1="30.48" y1="27.94" x2="-27.94" y2="27.94" width="0.254" layer="94"/>
<pin name="RE5" x="-33.02" y="17.78" length="middle"/>
<pin name="RE6" x="-33.02" y="15.24" length="middle"/>
<pin name="RE7" x="-33.02" y="12.7" length="middle"/>
<pin name="RG6" x="-33.02" y="10.16" length="middle"/>
<pin name="RG7" x="-33.02" y="7.62" length="middle"/>
<pin name="RG8" x="-33.02" y="5.08" length="middle"/>
<pin name="MCLR" x="-33.02" y="2.54" length="middle"/>
<pin name="RG9" x="-33.02" y="0" length="middle"/>
<pin name="VSS1" x="-33.02" y="-2.54" length="middle"/>
<pin name="VDD1" x="-33.02" y="-5.08" length="middle"/>
<pin name="RB5" x="-33.02" y="-7.62" length="middle"/>
<pin name="RB4" x="-33.02" y="-10.16" length="middle"/>
<pin name="RB3" x="-33.02" y="-12.7" length="middle"/>
<pin name="RB2" x="-33.02" y="-15.24" length="middle"/>
<pin name="RB1" x="-33.02" y="-17.78" length="middle"/>
<pin name="RB0" x="-33.02" y="-20.32" length="middle"/>
<pin name="PGC2/RB6" x="-17.78" y="-35.56" length="middle" rot="R90"/>
<pin name="PGD2/RB7" x="-15.24" y="-35.56" length="middle" rot="R90"/>
<pin name="AVDD" x="-12.7" y="-35.56" length="middle" rot="R90"/>
<pin name="AVSS" x="-10.16" y="-35.56" length="middle" rot="R90"/>
<pin name="RB8" x="-7.62" y="-35.56" length="middle" rot="R90"/>
<pin name="RB9" x="-5.08" y="-35.56" length="middle" rot="R90"/>
<pin name="RB10" x="-2.54" y="-35.56" length="middle" rot="R90"/>
<pin name="RB11" x="0" y="-35.56" length="middle" rot="R90"/>
<pin name="VSS2" x="2.54" y="-35.56" length="middle" rot="R90"/>
<pin name="VDD2" x="5.08" y="-35.56" length="middle" rot="R90"/>
<pin name="RB12" x="7.62" y="-35.56" length="middle" rot="R90"/>
<pin name="RB13" x="10.16" y="-35.56" length="middle" rot="R90"/>
<pin name="RB14" x="12.7" y="-35.56" length="middle" rot="R90"/>
<pin name="RB15" x="15.24" y="-35.56" length="middle" rot="R90"/>
<pin name="RF4" x="17.78" y="-35.56" length="middle" rot="R90"/>
<pin name="RF5" x="20.32" y="-35.56" length="middle" rot="R90"/>
<pin name="RF3" x="35.56" y="-20.32" length="middle" rot="R180"/>
<pin name="RF2" x="35.56" y="-17.78" length="middle" rot="R180"/>
<pin name="RF6" x="35.56" y="-15.24" length="middle" rot="R180"/>
<pin name="RG3" x="35.56" y="-12.7" length="middle" rot="R180"/>
<pin name="RG2" x="35.56" y="-10.16" length="middle" rot="R180"/>
<pin name="VDD3" x="35.56" y="-7.62" length="middle" rot="R180"/>
<pin name="RC12/OSC1" x="35.56" y="-5.08" length="middle" rot="R180"/>
<pin name="RC15/OSC2" x="35.56" y="-2.54" length="middle" rot="R180"/>
<pin name="VSS3" x="35.56" y="0" length="middle" rot="R180"/>
<pin name="RD8" x="35.56" y="2.54" length="middle" rot="R180"/>
<pin name="RD9" x="35.56" y="5.08" length="middle" rot="R180"/>
<pin name="RD10" x="35.56" y="7.62" length="middle" rot="R180"/>
<pin name="RD11" x="35.56" y="10.16" length="middle" rot="R180"/>
<pin name="RD0" x="35.56" y="12.7" length="middle" rot="R180"/>
<pin name="RC13" x="35.56" y="15.24" length="middle" rot="R180"/>
<pin name="RC14" x="35.56" y="17.78" length="middle" rot="R180"/>
<pin name="RD1" x="20.32" y="33.02" length="middle" rot="R270"/>
<pin name="RD2" x="17.78" y="33.02" length="middle" rot="R270"/>
<pin name="RD3" x="15.24" y="33.02" length="middle" rot="R270"/>
<pin name="RD4" x="12.7" y="33.02" length="middle" rot="R270"/>
<pin name="RD5" x="10.16" y="33.02" length="middle" rot="R270"/>
<pin name="RD6" x="7.62" y="33.02" length="middle" rot="R270"/>
<pin name="RD7" x="5.08" y="33.02" length="middle" rot="R270"/>
<pin name="VCAP" x="2.54" y="33.02" length="middle" rot="R270"/>
<pin name="ENVREG" x="0" y="33.02" length="middle" rot="R270"/>
<pin name="RF0" x="-2.54" y="33.02" length="middle" rot="R270"/>
<pin name="RF1" x="-5.08" y="33.02" length="middle" rot="R270"/>
<pin name="RE0" x="-7.62" y="33.02" length="middle" rot="R270"/>
<pin name="RE1" x="-10.16" y="33.02" length="middle" rot="R270"/>
<pin name="RE2" x="-12.7" y="33.02" length="middle" rot="R270"/>
<pin name="RE3" x="-15.24" y="33.02" length="middle" rot="R270"/>
<pin name="RE4" x="-17.78" y="33.02" length="middle" rot="R270"/>
<circle x="-22.86" y="22.86" radius="1.077628125" width="0.254" layer="94"/>
<text x="-12.7" y="10.16" size="1.27" layer="95">&gt;NAME</text>
<text x="-12.7" y="5.08" size="1.27" layer="96">&gt;VALUE</text>
</symbol>
<symbol name="PIC16F1508_9">
<wire x1="-5.08" y1="-2.54" x2="-5.08" y2="30.48" width="0.254" layer="94"/>
<wire x1="-5.08" y1="30.48" x2="17.78" y2="30.48" width="0.254" layer="94"/>
<wire x1="17.78" y1="30.48" x2="17.78" y2="-2.54" width="0.254" layer="94"/>
<wire x1="17.78" y1="-2.54" x2="-5.08" y2="-2.54" width="0.254" layer="94"/>
<pin name="VDD" x="-10.16" y="27.94" length="middle"/>
<pin name="RA5" x="-10.16" y="0" length="middle"/>
<pin name="RA4" x="-10.16" y="2.54" length="middle"/>
<pin name="RA3/MCLR" x="-10.16" y="5.08" length="middle"/>
<pin name="RC5" x="22.86" y="5.08" length="middle" rot="R180"/>
<pin name="RC4" x="22.86" y="7.62" length="middle" rot="R180"/>
<pin name="RC3" x="22.86" y="10.16" length="middle" rot="R180"/>
<pin name="RC6" x="22.86" y="2.54" length="middle" rot="R180"/>
<pin name="RC7" x="22.86" y="0" length="middle" rot="R180"/>
<pin name="RB7" x="22.86" y="20.32" length="middle" rot="R180"/>
<pin name="RB6" x="22.86" y="22.86" length="middle" rot="R180"/>
<pin name="RB5" x="22.86" y="25.4" length="middle" rot="R180"/>
<pin name="RB4" x="22.86" y="27.94" length="middle" rot="R180"/>
<pin name="RC2" x="22.86" y="12.7" length="middle" rot="R180"/>
<pin name="RC1" x="22.86" y="15.24" length="middle" rot="R180"/>
<pin name="RC0" x="22.86" y="17.78" length="middle" rot="R180"/>
<pin name="RA2" x="-10.16" y="7.62" length="middle"/>
<pin name="RA1/PGC" x="-10.16" y="10.16" length="middle"/>
<pin name="RA0/PGD" x="-10.16" y="12.7" length="middle"/>
<pin name="VSS" x="-10.16" y="22.86" length="middle"/>
<text x="-5.08" y="33.02" size="1.27" layer="95">&gt;NAME</text>
<text x="-5.08" y="35.56" size="1.27" layer="96">&gt;VALUE</text>
</symbol>
</symbols>
<devicesets>
<deviceset name="PIC12F1822-*/" prefix="IC">
<description>Device: PIC12F1822 &lt;br&gt;
Manufacture: Microchip&lt;br&gt;
Package: 8-Pin DIP&lt;br&gt;</description>
<gates>
<gate name="G$1" symbol="PIC12F1822" x="0" y="0"/>
</gates>
<devices>
<device name="P" package="8-DIP">
<connects>
<connect gate="G$1" pin="MCLR'/VPP/RA3" pad="4"/>
<connect gate="G$1" pin="RA0/ICSPDAT" pad="7"/>
<connect gate="G$1" pin="RA1/ICSPCLK" pad="6"/>
<connect gate="G$1" pin="RA2" pad="5"/>
<connect gate="G$1" pin="RA4" pad="3"/>
<connect gate="G$1" pin="RA5" pad="2"/>
<connect gate="G$1" pin="VDD" pad="1"/>
<connect gate="G$1" pin="VSS" pad="8"/>
</connects>
<technologies>
<technology name="E">
<attribute name="TEMP_RANGE" value="-40C to 125C" constant="no"/>
</technology>
<technology name="I">
<attribute name="TEMP_RANGE" value="-40C to 85C" constant="no"/>
</technology>
</technologies>
</device>
<device name="SN" package="8-SOIC">
<connects>
<connect gate="G$1" pin="MCLR'/VPP/RA3" pad="4"/>
<connect gate="G$1" pin="RA0/ICSPDAT" pad="7"/>
<connect gate="G$1" pin="RA1/ICSPCLK" pad="6"/>
<connect gate="G$1" pin="RA2" pad="5"/>
<connect gate="G$1" pin="RA4" pad="3"/>
<connect gate="G$1" pin="RA5" pad="2"/>
<connect gate="G$1" pin="VDD" pad="1"/>
<connect gate="G$1" pin="VSS" pad="8"/>
</connects>
<technologies>
<technology name="E">
<attribute name="TEMP_RANGE" value="-40C to 125C" constant="no"/>
</technology>
<technology name="I">
<attribute name="TEMP_RANGE" value="-40C to 85C" constant="no"/>
</technology>
</technologies>
</device>
</devices>
</deviceset>
<deviceset name="PIC18F13K22-*/" prefix="IC">
<description>Product: PIC18F13K22
Manufacturer: Microchip
Package: 20-Pin DIP</description>
<gates>
<gate name="G$1" symbol="PIC18F13K22" x="0" y="0"/>
</gates>
<devices>
<device name="P" package="20-DIP">
<connects>
<connect gate="G$1" pin="P1A/RC5" pad="5"/>
<connect gate="G$1" pin="P1B/RC4" pad="6"/>
<connect gate="G$1" pin="P1C/PGM/RC3" pad="7"/>
<connect gate="G$1" pin="P1D/RC2" pad="14"/>
<connect gate="G$1" pin="RA0/PGD" pad="19"/>
<connect gate="G$1" pin="RA1/PGC" pad="18"/>
<connect gate="G$1" pin="RA2" pad="17"/>
<connect gate="G$1" pin="RA3/MCLR'" pad="4"/>
<connect gate="G$1" pin="RA4/OSC2" pad="3"/>
<connect gate="G$1" pin="RA5/OSC1" pad="2"/>
<connect gate="G$1" pin="RB5" pad="12"/>
<connect gate="G$1" pin="RB7" pad="10"/>
<connect gate="G$1" pin="RC0" pad="16"/>
<connect gate="G$1" pin="RC1" pad="15"/>
<connect gate="G$1" pin="SCL/RB6" pad="11"/>
<connect gate="G$1" pin="SDI/RB4" pad="13"/>
<connect gate="G$1" pin="SDO/RC7" pad="9"/>
<connect gate="G$1" pin="SS'/RC6" pad="8"/>
<connect gate="G$1" pin="VDD" pad="1"/>
<connect gate="G$1" pin="VSS" pad="20"/>
</connects>
<technologies>
<technology name="E">
<attribute name="TEMP_RANGE" value="-40C to 125C" constant="no"/>
</technology>
<technology name="I">
<attribute name="TEMP_RANGE" value="-40C to 85C" constant="no"/>
</technology>
</technologies>
</device>
<device name="SO" package="20-SOIC">
<connects>
<connect gate="G$1" pin="P1A/RC5" pad="5"/>
<connect gate="G$1" pin="P1B/RC4" pad="6"/>
<connect gate="G$1" pin="P1C/PGM/RC3" pad="7"/>
<connect gate="G$1" pin="P1D/RC2" pad="14"/>
<connect gate="G$1" pin="RA0/PGD" pad="19"/>
<connect gate="G$1" pin="RA1/PGC" pad="18"/>
<connect gate="G$1" pin="RA2" pad="17"/>
<connect gate="G$1" pin="RA3/MCLR'" pad="4"/>
<connect gate="G$1" pin="RA4/OSC2" pad="3"/>
<connect gate="G$1" pin="RA5/OSC1" pad="2"/>
<connect gate="G$1" pin="RB5" pad="12"/>
<connect gate="G$1" pin="RB7" pad="10"/>
<connect gate="G$1" pin="RC0" pad="16"/>
<connect gate="G$1" pin="RC1" pad="15"/>
<connect gate="G$1" pin="SCL/RB6" pad="11"/>
<connect gate="G$1" pin="SDI/RB4" pad="13"/>
<connect gate="G$1" pin="SDO/RC7" pad="9"/>
<connect gate="G$1" pin="SS'/RC6" pad="8"/>
<connect gate="G$1" pin="VDD" pad="1"/>
<connect gate="G$1" pin="VSS" pad="20"/>
</connects>
<technologies>
<technology name="E">
<attribute name="TEMP_RANGE" value="-40C to 125C" constant="no"/>
</technology>
<technology name="I">
<attribute name="TEMP_RANGE" value="-40C to 85C" constant="no"/>
</technology>
</technologies>
</device>
</devices>
</deviceset>
<deviceset name="PIC32MX210F016D-*/" prefix="IC">
<gates>
<gate name="G$1" symbol="PIC32MX210F016D" x="-20.32" y="-20.32"/>
</gates>
<devices>
<device name="PT" package="44-TQFP">
<connects>
<connect gate="G$1" pin="AVDD" pad="17"/>
<connect gate="G$1" pin="AVSS" pad="16"/>
<connect gate="G$1" pin="MCLR'" pad="18"/>
<connect gate="G$1" pin="RA0/PGED3" pad="19"/>
<connect gate="G$1" pin="RA1/PGEC3" pad="20"/>
<connect gate="G$1" pin="RA10" pad="12"/>
<connect gate="G$1" pin="RA2" pad="30"/>
<connect gate="G$1" pin="RA3" pad="31"/>
<connect gate="G$1" pin="RA4" pad="34"/>
<connect gate="G$1" pin="RA7" pad="13"/>
<connect gate="G$1" pin="RA8" pad="32"/>
<connect gate="G$1" pin="RA9" pad="35"/>
<connect gate="G$1" pin="RB0/PGED1" pad="21"/>
<connect gate="G$1" pin="RB1/PGEC1" pad="22"/>
<connect gate="G$1" pin="RB10/PGED2" pad="8"/>
<connect gate="G$1" pin="RB11/PGEC2" pad="9"/>
<connect gate="G$1" pin="RB13" pad="11"/>
<connect gate="G$1" pin="RB14" pad="14"/>
<connect gate="G$1" pin="RB15" pad="15"/>
<connect gate="G$1" pin="RB2" pad="23"/>
<connect gate="G$1" pin="RB3" pad="24"/>
<connect gate="G$1" pin="RB4" pad="33"/>
<connect gate="G$1" pin="RB5" pad="41"/>
<connect gate="G$1" pin="RB7" pad="43"/>
<connect gate="G$1" pin="RB8" pad="44"/>
<connect gate="G$1" pin="RB9" pad="1"/>
<connect gate="G$1" pin="RC0" pad="25"/>
<connect gate="G$1" pin="RC1" pad="26"/>
<connect gate="G$1" pin="RC2" pad="27"/>
<connect gate="G$1" pin="RC3" pad="36"/>
<connect gate="G$1" pin="RC4" pad="37"/>
<connect gate="G$1" pin="RC5" pad="38"/>
<connect gate="G$1" pin="RC6" pad="2"/>
<connect gate="G$1" pin="RC7" pad="3"/>
<connect gate="G$1" pin="RC8" pad="4"/>
<connect gate="G$1" pin="RC9" pad="5"/>
<connect gate="G$1" pin="VBUS" pad="42"/>
<connect gate="G$1" pin="VCAP" pad="7"/>
<connect gate="G$1" pin="VDD3" pad="28"/>
<connect gate="G$1" pin="VDD4" pad="40"/>
<connect gate="G$1" pin="VSS1" pad="6"/>
<connect gate="G$1" pin="VSS3" pad="29"/>
<connect gate="G$1" pin="VSS4" pad="39"/>
<connect gate="G$1" pin="VUSB3V3" pad="10"/>
</connects>
<technologies>
<technology name="I">
<attribute name="TEMP_RANGE" value="-40C to +85C" constant="no"/>
</technology>
<technology name="V">
<attribute name="TEMP_RANGE" value="-40C to +105C" constant="no"/>
</technology>
</technologies>
</device>
</devices>
</deviceset>
<deviceset name="PIC16F1823-*/" prefix="IC">
<gates>
<gate name="G$1" symbol="PIC16F1823" x="0" y="0"/>
</gates>
<devices>
<device name="P" package="14-DIP">
<connects>
<connect gate="G$1" pin="RA0/DAT" pad="13"/>
<connect gate="G$1" pin="RA1/CLK" pad="12"/>
<connect gate="G$1" pin="RA2" pad="11"/>
<connect gate="G$1" pin="RA3/VPP" pad="4"/>
<connect gate="G$1" pin="RA4/OSC2" pad="3"/>
<connect gate="G$1" pin="RA5/OSC1" pad="2"/>
<connect gate="G$1" pin="RC0" pad="10"/>
<connect gate="G$1" pin="RC1" pad="9"/>
<connect gate="G$1" pin="RC2" pad="8"/>
<connect gate="G$1" pin="RC3" pad="7"/>
<connect gate="G$1" pin="RC4" pad="6"/>
<connect gate="G$1" pin="RC5" pad="5"/>
<connect gate="G$1" pin="VDD" pad="1"/>
<connect gate="G$1" pin="VSS" pad="14"/>
</connects>
<technologies>
<technology name="E">
<attribute name="TEMP_RANGE" value="-40C to 125C" constant="no"/>
</technology>
<technology name="I">
<attribute name="TEMP_RANGE" value="-40C to 85C" constant="no"/>
</technology>
</technologies>
</device>
<device name="SL" package="14-SOIC">
<connects>
<connect gate="G$1" pin="RA0/DAT" pad="13"/>
<connect gate="G$1" pin="RA1/CLK" pad="12"/>
<connect gate="G$1" pin="RA2" pad="11"/>
<connect gate="G$1" pin="RA3/VPP" pad="4"/>
<connect gate="G$1" pin="RA4/OSC2" pad="3"/>
<connect gate="G$1" pin="RA5/OSC1" pad="2"/>
<connect gate="G$1" pin="RC0" pad="10"/>
<connect gate="G$1" pin="RC1" pad="9"/>
<connect gate="G$1" pin="RC2" pad="8"/>
<connect gate="G$1" pin="RC3" pad="7"/>
<connect gate="G$1" pin="RC4" pad="6"/>
<connect gate="G$1" pin="RC5" pad="5"/>
<connect gate="G$1" pin="VDD" pad="1"/>
<connect gate="G$1" pin="VSS" pad="14"/>
</connects>
<technologies>
<technology name="E">
<attribute name="TEMP_RANGE" value="-40C to 125C" constant="no"/>
</technology>
<technology name="I">
<attribute name="TEMP_RANGE" value="-40C to 85C" constant="no"/>
</technology>
</technologies>
</device>
<device name="ST" package="14-TSSOP">
<connects>
<connect gate="G$1" pin="RA0/DAT" pad="13"/>
<connect gate="G$1" pin="RA1/CLK" pad="12"/>
<connect gate="G$1" pin="RA2" pad="11"/>
<connect gate="G$1" pin="RA3/VPP" pad="4"/>
<connect gate="G$1" pin="RA4/OSC2" pad="3"/>
<connect gate="G$1" pin="RA5/OSC1" pad="2"/>
<connect gate="G$1" pin="RC0" pad="10"/>
<connect gate="G$1" pin="RC1" pad="9"/>
<connect gate="G$1" pin="RC2" pad="8"/>
<connect gate="G$1" pin="RC3" pad="7"/>
<connect gate="G$1" pin="RC4" pad="6"/>
<connect gate="G$1" pin="RC5" pad="5"/>
<connect gate="G$1" pin="VDD" pad="1"/>
<connect gate="G$1" pin="VSS" pad="14"/>
</connects>
<technologies>
<technology name="E">
<attribute name="TEMP_RANGE" value="-40C to 125C" constant="no"/>
</technology>
<technology name="I">
<attribute name="TEMP_RANGE" value="-40C to 85C" constant="no"/>
</technology>
</technologies>
</device>
<device name="ML" package="16-QFN">
<connects>
<connect gate="G$1" pin="RA0/DAT" pad="12"/>
<connect gate="G$1" pin="RA1/CLK" pad="11"/>
<connect gate="G$1" pin="RA2" pad="10"/>
<connect gate="G$1" pin="RA3/VPP" pad="3"/>
<connect gate="G$1" pin="RA4/OSC2" pad="2"/>
<connect gate="G$1" pin="RA5/OSC1" pad="1"/>
<connect gate="G$1" pin="RC0" pad="9"/>
<connect gate="G$1" pin="RC1" pad="8"/>
<connect gate="G$1" pin="RC2" pad="7"/>
<connect gate="G$1" pin="RC3" pad="6"/>
<connect gate="G$1" pin="RC4" pad="5"/>
<connect gate="G$1" pin="RC5" pad="4"/>
<connect gate="G$1" pin="VDD" pad="16"/>
<connect gate="G$1" pin="VSS" pad="13"/>
</connects>
<technologies>
<technology name="E">
<attribute name="TEMP_RANGE" value="-40C to 125C" constant="no"/>
</technology>
<technology name="I">
<attribute name="TEMP_RANGE" value="-40C to 85C" constant="no"/>
</technology>
</technologies>
</device>
</devices>
</deviceset>
<deviceset name="PIC32MX340F512H-*/" prefix="IC">
<gates>
<gate name="G$1" symbol="PIC32MX340F512H" x="0" y="0"/>
</gates>
<devices>
<device name="PT" package="64-TQFP">
<connects>
<connect gate="G$1" pin="AVDD" pad="19"/>
<connect gate="G$1" pin="AVSS" pad="20"/>
<connect gate="G$1" pin="ENVREG" pad="57"/>
<connect gate="G$1" pin="MCLR" pad="7"/>
<connect gate="G$1" pin="PGC2/RB6" pad="17"/>
<connect gate="G$1" pin="PGD2/RB7" pad="18"/>
<connect gate="G$1" pin="RB0" pad="16"/>
<connect gate="G$1" pin="RB1" pad="15"/>
<connect gate="G$1" pin="RB10" pad="23"/>
<connect gate="G$1" pin="RB11" pad="24"/>
<connect gate="G$1" pin="RB12" pad="27"/>
<connect gate="G$1" pin="RB13" pad="28"/>
<connect gate="G$1" pin="RB14" pad="29"/>
<connect gate="G$1" pin="RB15" pad="30"/>
<connect gate="G$1" pin="RB2" pad="14"/>
<connect gate="G$1" pin="RB3" pad="13"/>
<connect gate="G$1" pin="RB4" pad="12"/>
<connect gate="G$1" pin="RB5" pad="11"/>
<connect gate="G$1" pin="RB8" pad="21"/>
<connect gate="G$1" pin="RB9" pad="22"/>
<connect gate="G$1" pin="RC12/OSC1" pad="39"/>
<connect gate="G$1" pin="RC13" pad="47"/>
<connect gate="G$1" pin="RC14" pad="48"/>
<connect gate="G$1" pin="RC15/OSC2" pad="40"/>
<connect gate="G$1" pin="RD0" pad="46"/>
<connect gate="G$1" pin="RD1" pad="49"/>
<connect gate="G$1" pin="RD10" pad="44"/>
<connect gate="G$1" pin="RD11" pad="45"/>
<connect gate="G$1" pin="RD2" pad="50"/>
<connect gate="G$1" pin="RD3" pad="51"/>
<connect gate="G$1" pin="RD4" pad="52"/>
<connect gate="G$1" pin="RD5" pad="53"/>
<connect gate="G$1" pin="RD6" pad="54"/>
<connect gate="G$1" pin="RD7" pad="55"/>
<connect gate="G$1" pin="RD8" pad="42"/>
<connect gate="G$1" pin="RD9" pad="43"/>
<connect gate="G$1" pin="RE0" pad="60"/>
<connect gate="G$1" pin="RE1" pad="61"/>
<connect gate="G$1" pin="RE2" pad="62"/>
<connect gate="G$1" pin="RE3" pad="63"/>
<connect gate="G$1" pin="RE4" pad="64"/>
<connect gate="G$1" pin="RE5" pad="1"/>
<connect gate="G$1" pin="RE6" pad="2"/>
<connect gate="G$1" pin="RE7" pad="3"/>
<connect gate="G$1" pin="RF0" pad="58"/>
<connect gate="G$1" pin="RF1" pad="59"/>
<connect gate="G$1" pin="RF2" pad="34"/>
<connect gate="G$1" pin="RF3" pad="33"/>
<connect gate="G$1" pin="RF4" pad="31"/>
<connect gate="G$1" pin="RF5" pad="32"/>
<connect gate="G$1" pin="RF6" pad="35"/>
<connect gate="G$1" pin="RG2" pad="37"/>
<connect gate="G$1" pin="RG3" pad="36"/>
<connect gate="G$1" pin="RG6" pad="4"/>
<connect gate="G$1" pin="RG7" pad="5"/>
<connect gate="G$1" pin="RG8" pad="6"/>
<connect gate="G$1" pin="RG9" pad="8"/>
<connect gate="G$1" pin="VCAP" pad="56"/>
<connect gate="G$1" pin="VDD1" pad="10"/>
<connect gate="G$1" pin="VDD2" pad="26"/>
<connect gate="G$1" pin="VDD3" pad="38"/>
<connect gate="G$1" pin="VSS1" pad="9"/>
<connect gate="G$1" pin="VSS2" pad="25"/>
<connect gate="G$1" pin="VSS3" pad="41"/>
</connects>
<technologies>
<technology name="I">
<attribute name="TEMP_RANGE" value="-40C to +85C" constant="no"/>
</technology>
<technology name="V">
<attribute name="TEMP_RANGE" value="-40C to +105C" constant="no"/>
</technology>
</technologies>
</device>
</devices>
</deviceset>
<deviceset name="PIC16F1509-*/" prefix="IC">
<gates>
<gate name="G$1" symbol="PIC16F1508_9" x="0" y="0"/>
</gates>
<devices>
<device name="P" package="20-DIP">
<connects>
<connect gate="G$1" pin="RA0/PGD" pad="19"/>
<connect gate="G$1" pin="RA1/PGC" pad="18"/>
<connect gate="G$1" pin="RA2" pad="17"/>
<connect gate="G$1" pin="RA3/MCLR" pad="4"/>
<connect gate="G$1" pin="RA4" pad="3"/>
<connect gate="G$1" pin="RA5" pad="2"/>
<connect gate="G$1" pin="RB4" pad="13"/>
<connect gate="G$1" pin="RB5" pad="12"/>
<connect gate="G$1" pin="RB6" pad="11"/>
<connect gate="G$1" pin="RB7" pad="10"/>
<connect gate="G$1" pin="RC0" pad="16"/>
<connect gate="G$1" pin="RC1" pad="15"/>
<connect gate="G$1" pin="RC2" pad="14"/>
<connect gate="G$1" pin="RC3" pad="7"/>
<connect gate="G$1" pin="RC4" pad="6"/>
<connect gate="G$1" pin="RC5" pad="5"/>
<connect gate="G$1" pin="RC6" pad="8"/>
<connect gate="G$1" pin="RC7" pad="9"/>
<connect gate="G$1" pin="VDD" pad="1"/>
<connect gate="G$1" pin="VSS" pad="20"/>
</connects>
<technologies>
<technology name="E">
<attribute name="TEMP_RANGE" value="-40C to 125C" constant="no"/>
</technology>
<technology name="I">
<attribute name="TEMP_RANGE" value="-40C to 85C" constant="no"/>
</technology>
</technologies>
</device>
<device name="ML" package="20-QFN">
<connects>
<connect gate="G$1" pin="RA0/PGD" pad="16"/>
<connect gate="G$1" pin="RA1/PGC" pad="15"/>
<connect gate="G$1" pin="RA2" pad="14"/>
<connect gate="G$1" pin="RA3/MCLR" pad="1"/>
<connect gate="G$1" pin="RA4" pad="20"/>
<connect gate="G$1" pin="RA5" pad="19"/>
<connect gate="G$1" pin="RB4" pad="10"/>
<connect gate="G$1" pin="RB5" pad="9"/>
<connect gate="G$1" pin="RB6" pad="8"/>
<connect gate="G$1" pin="RB7" pad="7"/>
<connect gate="G$1" pin="RC0" pad="13"/>
<connect gate="G$1" pin="RC1" pad="12"/>
<connect gate="G$1" pin="RC2" pad="11"/>
<connect gate="G$1" pin="RC3" pad="4"/>
<connect gate="G$1" pin="RC4" pad="3"/>
<connect gate="G$1" pin="RC5" pad="2"/>
<connect gate="G$1" pin="RC6" pad="5"/>
<connect gate="G$1" pin="RC7" pad="6"/>
<connect gate="G$1" pin="VDD" pad="18"/>
<connect gate="G$1" pin="VSS" pad="17"/>
</connects>
<technologies>
<technology name="E">
<attribute name="TEMP_RANGE" value="-40C to 125C" constant="no"/>
</technology>
<technology name="I">
<attribute name="TEMP_RANGE" value="-40C to 85C" constant="no"/>
</technology>
</technologies>
</device>
<device name="SO" package="20-SOIC">
<connects>
<connect gate="G$1" pin="RA0/PGD" pad="19"/>
<connect gate="G$1" pin="RA1/PGC" pad="18"/>
<connect gate="G$1" pin="RA2" pad="17"/>
<connect gate="G$1" pin="RA3/MCLR" pad="4"/>
<connect gate="G$1" pin="RA4" pad="3"/>
<connect gate="G$1" pin="RA5" pad="2"/>
<connect gate="G$1" pin="RB4" pad="13"/>
<connect gate="G$1" pin="RB5" pad="12"/>
<connect gate="G$1" pin="RB6" pad="11"/>
<connect gate="G$1" pin="RB7" pad="10"/>
<connect gate="G$1" pin="RC0" pad="16"/>
<connect gate="G$1" pin="RC1" pad="15"/>
<connect gate="G$1" pin="RC2" pad="14"/>
<connect gate="G$1" pin="RC3" pad="7"/>
<connect gate="G$1" pin="RC4" pad="6"/>
<connect gate="G$1" pin="RC5" pad="5"/>
<connect gate="G$1" pin="RC6" pad="8"/>
<connect gate="G$1" pin="RC7" pad="9"/>
<connect gate="G$1" pin="VDD" pad="1"/>
<connect gate="G$1" pin="VSS" pad="20"/>
</connects>
<technologies>
<technology name="E">
<attribute name="TEMP_RANGE" value="-40C to 125C" constant="no"/>
</technology>
<technology name="I">
<attribute name="TEMP_RANGE" value="-40C to 85C" constant="no"/>
</technology>
</technologies>
</device>
<device name="SS" package="20-SSOP">
<connects>
<connect gate="G$1" pin="RA0/PGD" pad="19"/>
<connect gate="G$1" pin="RA1/PGC" pad="18"/>
<connect gate="G$1" pin="RA2" pad="17"/>
<connect gate="G$1" pin="RA3/MCLR" pad="4"/>
<connect gate="G$1" pin="RA4" pad="3"/>
<connect gate="G$1" pin="RA5" pad="2"/>
<connect gate="G$1" pin="RB4" pad="13"/>
<connect gate="G$1" pin="RB5" pad="12"/>
<connect gate="G$1" pin="RB6" pad="11"/>
<connect gate="G$1" pin="RB7" pad="10"/>
<connect gate="G$1" pin="RC0" pad="16"/>
<connect gate="G$1" pin="RC1" pad="15"/>
<connect gate="G$1" pin="RC2" pad="14"/>
<connect gate="G$1" pin="RC3" pad="7"/>
<connect gate="G$1" pin="RC4" pad="6"/>
<connect gate="G$1" pin="RC5" pad="5"/>
<connect gate="G$1" pin="RC6" pad="8"/>
<connect gate="G$1" pin="RC7" pad="9"/>
<connect gate="G$1" pin="VDD" pad="1"/>
<connect gate="G$1" pin="VSS" pad="20"/>
</connects>
<technologies>
<technology name="E">
<attribute name="TEMP_RANGE" value="-40C to 125C" constant="no"/>
</technology>
<technology name="I">
<attribute name="TEMP_RANGE" value="-40C to 85C" constant="no"/>
</technology>
</technologies>
</device>
<device name="GZ" package="20-UQFN">
<connects>
<connect gate="G$1" pin="RA0/PGD" pad="16"/>
<connect gate="G$1" pin="RA1/PGC" pad="15"/>
<connect gate="G$1" pin="RA2" pad="14"/>
<connect gate="G$1" pin="RA3/MCLR" pad="1"/>
<connect gate="G$1" pin="RA4" pad="20"/>
<connect gate="G$1" pin="RA5" pad="19"/>
<connect gate="G$1" pin="RB4" pad="10"/>
<connect gate="G$1" pin="RB5" pad="9"/>
<connect gate="G$1" pin="RB6" pad="8"/>
<connect gate="G$1" pin="RB7" pad="7"/>
<connect gate="G$1" pin="RC0" pad="13"/>
<connect gate="G$1" pin="RC1" pad="12"/>
<connect gate="G$1" pin="RC2" pad="11"/>
<connect gate="G$1" pin="RC3" pad="4"/>
<connect gate="G$1" pin="RC4" pad="3"/>
<connect gate="G$1" pin="RC5" pad="2"/>
<connect gate="G$1" pin="RC6" pad="5"/>
<connect gate="G$1" pin="RC7" pad="6"/>
<connect gate="G$1" pin="VDD" pad="18"/>
<connect gate="G$1" pin="VSS" pad="17"/>
</connects>
<technologies>
<technology name="E">
<attribute name="TEMP_RANGE" value="-40C to 125C" constant="no"/>
</technology>
<technology name="I">
<attribute name="TEMP_RANGE" value="-40C to 85C" constant="no"/>
</technology>
</technologies>
</device>
</devices>
</deviceset>
<deviceset name="PIC16F1508-*/" prefix="IC">
<gates>
<gate name="G$1" symbol="PIC16F1508_9" x="0" y="0"/>
</gates>
<devices>
<device name="P" package="20-DIP">
<connects>
<connect gate="G$1" pin="RA0/PGD" pad="19"/>
<connect gate="G$1" pin="RA1/PGC" pad="18"/>
<connect gate="G$1" pin="RA2" pad="17"/>
<connect gate="G$1" pin="RA3/MCLR" pad="4"/>
<connect gate="G$1" pin="RA4" pad="3"/>
<connect gate="G$1" pin="RA5" pad="2"/>
<connect gate="G$1" pin="RB4" pad="13"/>
<connect gate="G$1" pin="RB5" pad="12"/>
<connect gate="G$1" pin="RB6" pad="11"/>
<connect gate="G$1" pin="RB7" pad="10"/>
<connect gate="G$1" pin="RC0" pad="16"/>
<connect gate="G$1" pin="RC1" pad="15"/>
<connect gate="G$1" pin="RC2" pad="14"/>
<connect gate="G$1" pin="RC3" pad="7"/>
<connect gate="G$1" pin="RC4" pad="6"/>
<connect gate="G$1" pin="RC5" pad="5"/>
<connect gate="G$1" pin="RC6" pad="8"/>
<connect gate="G$1" pin="RC7" pad="9"/>
<connect gate="G$1" pin="VDD" pad="1"/>
<connect gate="G$1" pin="VSS" pad="20"/>
</connects>
<technologies>
<technology name="E">
<attribute name="TEMP_RANGE" value="-40C to 125C" constant="no"/>
</technology>
<technology name="I">
<attribute name="TEMP_RANGE" value="-40C to 85C" constant="no"/>
</technology>
</technologies>
</device>
<device name="SO" package="20-SOIC">
<connects>
<connect gate="G$1" pin="RA0/PGD" pad="19"/>
<connect gate="G$1" pin="RA1/PGC" pad="18"/>
<connect gate="G$1" pin="RA2" pad="17"/>
<connect gate="G$1" pin="RA3/MCLR" pad="4"/>
<connect gate="G$1" pin="RA4" pad="3"/>
<connect gate="G$1" pin="RA5" pad="2"/>
<connect gate="G$1" pin="RB4" pad="13"/>
<connect gate="G$1" pin="RB5" pad="12"/>
<connect gate="G$1" pin="RB6" pad="11"/>
<connect gate="G$1" pin="RB7" pad="10"/>
<connect gate="G$1" pin="RC0" pad="16"/>
<connect gate="G$1" pin="RC1" pad="15"/>
<connect gate="G$1" pin="RC2" pad="14"/>
<connect gate="G$1" pin="RC3" pad="7"/>
<connect gate="G$1" pin="RC4" pad="6"/>
<connect gate="G$1" pin="RC5" pad="5"/>
<connect gate="G$1" pin="RC6" pad="8"/>
<connect gate="G$1" pin="RC7" pad="9"/>
<connect gate="G$1" pin="VDD" pad="1"/>
<connect gate="G$1" pin="VSS" pad="20"/>
</connects>
<technologies>
<technology name="E">
<attribute name="TEMP_RANGE" value="-40C to 125C" constant="no"/>
</technology>
<technology name="I">
<attribute name="TEMP_RANGE" value="-40C to 85C" constant="no"/>
</technology>
</technologies>
</device>
<device name="SS" package="20-SSOP">
<connects>
<connect gate="G$1" pin="RA0/PGD" pad="19"/>
<connect gate="G$1" pin="RA1/PGC" pad="18"/>
<connect gate="G$1" pin="RA2" pad="17"/>
<connect gate="G$1" pin="RA3/MCLR" pad="4"/>
<connect gate="G$1" pin="RA4" pad="3"/>
<connect gate="G$1" pin="RA5" pad="2"/>
<connect gate="G$1" pin="RB4" pad="13"/>
<connect gate="G$1" pin="RB5" pad="12"/>
<connect gate="G$1" pin="RB6" pad="11"/>
<connect gate="G$1" pin="RB7" pad="10"/>
<connect gate="G$1" pin="RC0" pad="16"/>
<connect gate="G$1" pin="RC1" pad="15"/>
<connect gate="G$1" pin="RC2" pad="14"/>
<connect gate="G$1" pin="RC3" pad="7"/>
<connect gate="G$1" pin="RC4" pad="6"/>
<connect gate="G$1" pin="RC5" pad="5"/>
<connect gate="G$1" pin="RC6" pad="8"/>
<connect gate="G$1" pin="RC7" pad="9"/>
<connect gate="G$1" pin="VDD" pad="1"/>
<connect gate="G$1" pin="VSS" pad="20"/>
</connects>
<technologies>
<technology name="E">
<attribute name="TEMP_RANGE" value="-40C to 125C" constant="no"/>
</technology>
<technology name="I">
<attribute name="TEMP_RANGE" value="-40C to 85C" constant="no"/>
</technology>
</technologies>
</device>
<device name="ML" package="20-QFN">
<connects>
<connect gate="G$1" pin="RA0/PGD" pad="16"/>
<connect gate="G$1" pin="RA1/PGC" pad="15"/>
<connect gate="G$1" pin="RA2" pad="14"/>
<connect gate="G$1" pin="RA3/MCLR" pad="1"/>
<connect gate="G$1" pin="RA4" pad="20"/>
<connect gate="G$1" pin="RA5" pad="19"/>
<connect gate="G$1" pin="RB4" pad="10"/>
<connect gate="G$1" pin="RB5" pad="9"/>
<connect gate="G$1" pin="RB6" pad="8"/>
<connect gate="G$1" pin="RB7" pad="7"/>
<connect gate="G$1" pin="RC0" pad="13"/>
<connect gate="G$1" pin="RC1" pad="12"/>
<connect gate="G$1" pin="RC2" pad="11"/>
<connect gate="G$1" pin="RC3" pad="4"/>
<connect gate="G$1" pin="RC4" pad="3"/>
<connect gate="G$1" pin="RC5" pad="2"/>
<connect gate="G$1" pin="RC6" pad="5"/>
<connect gate="G$1" pin="RC7" pad="6"/>
<connect gate="G$1" pin="VDD" pad="18"/>
<connect gate="G$1" pin="VSS" pad="17"/>
</connects>
<technologies>
<technology name="E">
<attribute name="TEMP_RANGE" value="-40C to 125C" constant="no"/>
</technology>
<technology name="I">
<attribute name="TEMP_RANGE" value="-40C to 85C" constant="no"/>
</technology>
</technologies>
</device>
<device name="GZ" package="20-UQFN">
<connects>
<connect gate="G$1" pin="RA0/PGD" pad="16"/>
<connect gate="G$1" pin="RA1/PGC" pad="15"/>
<connect gate="G$1" pin="RA2" pad="14"/>
<connect gate="G$1" pin="RA3/MCLR" pad="1"/>
<connect gate="G$1" pin="RA4" pad="20"/>
<connect gate="G$1" pin="RA5" pad="19"/>
<connect gate="G$1" pin="RB4" pad="10"/>
<connect gate="G$1" pin="RB5" pad="9"/>
<connect gate="G$1" pin="RB6" pad="8"/>
<connect gate="G$1" pin="RB7" pad="7"/>
<connect gate="G$1" pin="RC0" pad="13"/>
<connect gate="G$1" pin="RC1" pad="12"/>
<connect gate="G$1" pin="RC2" pad="11"/>
<connect gate="G$1" pin="RC3" pad="4"/>
<connect gate="G$1" pin="RC4" pad="3"/>
<connect gate="G$1" pin="RC5" pad="2"/>
<connect gate="G$1" pin="RC6" pad="5"/>
<connect gate="G$1" pin="RC7" pad="6"/>
<connect gate="G$1" pin="VDD" pad="18"/>
<connect gate="G$1" pin="VSS" pad="17"/>
</connects>
<technologies>
<technology name="E">
<attribute name="TEMP_RANGE" value="-40C to 125C" constant="no"/>
</technology>
<technology name="I">
<attribute name="TEMP_RANGE" value="-40C to 85C" constant="no"/>
</technology>
</technologies>
</device>
</devices>
</deviceset>
</devicesets>
</library>
</drawing>
</eagle>
